projects/N_bit_Full_Adder/N_bit_Full_Adder.sim/sim_1/behav/xsim/dump.vcd
$date
   Mon Jun  3 13:59:56 2024
$end

$version
  2023.2
  $dumpfile ("dump.vcd") 
$end

$timescale
  1ps
$end

$scope module n_adder_tb $end
$scope module dut $end
$var wire 8 ! A [7:0] $end
$var wire 8 " B [7:0] $end
$var wire 1 # c_in $end
$var reg 8 $ S [7:0] $end
$var reg 1 % c_out $end
$var reg 9 & C [8:0] $end
$scope module add[0].fa $end
$var wire 1 ' a $end
$var wire 1 ( b $end
$var wire 1 ) c_in $end
$var reg 1 * sum $end
$var reg 1 + c_out $end
$var reg 1 , wire_1 $end
$var reg 1 - wire_2 $end
$var reg 1 . wire_3 $end
$upscope $end
$scope module add[1].fa $end
$var wire 1 / a $end
$var wire 1 0 b $end
$var wire 1 1 c_in $end
$var reg 1 2 sum $end
$var reg 1 3 c_out $end
$var reg 1 4 wire_1 $end
$var reg 1 5 wire_2 $end
$var reg 1 6 wire_3 $end
$upscope $end
$scope module add[2].fa $end
$var wire 1 7 a $end
$var wire 1 8 b $end
$var wire 1 9 c_in $end
$var reg 1 : sum $end
$var reg 1 ; c_out $end
$var reg 1 < wire_1 $end
$var reg 1 = wire_2 $end
$var reg 1 > wire_3 $end
$upscope $end
$scope module add[3].fa $end
$var wire 1 ? a $end
$var wire 1 @ b $end
$var wire 1 A c_in $end
$var reg 1 B sum $end
$var reg 1 C c_out $end
$var reg 1 D wire_1 $end
$var reg 1 E wire_2 $end
$var reg 1 F wire_3 $end
$upscope $end
$scope module add[4].fa $end
$var wire 1 G a $end
$var wire 1 H b $end
$var wire 1 I c_in $end
$var reg 1 J sum $end
$var reg 1 K c_out $end
$var reg 1 L wire_1 $end
$var reg 1 M wire_2 $end
$var reg 1 N wire_3 $end
$upscope $end
$scope module add[5].fa $end
$var wire 1 O a $end
$var wire 1 P b $end
$var wire 1 Q c_in $end
$var reg 1 R sum $end
$var reg 1 S c_out $end
$var reg 1 T wire_1 $end
$var reg 1 U wire_2 $end
$var reg 1 V wire_3 $end
$upscope $end
$scope module add[6].fa $end
$var wire 1 W a $end
$var wire 1 X b $end
$var wire 1 Y c_in $end
$var reg 1 Z sum $end
$var reg 1 [ c_out $end
$var reg 1 \ wire_1 $end
$var reg 1 ] wire_2 $end
$var reg 1 ^ wire_3 $end
$upscope $end
$scope module add[7].fa $end
$var wire 1 _ a $end
$var wire 1 ` b $end
$var wire 1 a c_in $end
$var reg 1 b sum $end
$var reg 1 c c_out $end
$var reg 1 d wire_1 $end
$var reg 1 e wire_2 $end
$var reg 1 f wire_3 $end
$upscope $end
$upscope $end
$upscope $end
$enddefinitions $end

#0
$dumpvars
b101 !
b1010 "
0#
b1111 $
0%
b0 &
1'
0(
0)
1*
0+
1,
0-
0.
0/
10
01
12
03
14
05
06
17
08
09
1:
0;
1<
0=
0>
0?
1@
0A
1B
0C
1D
0E
0F
0G
0H
0I
0J
0K
0L
0M
0N
0O
0P
0Q
0R
0S
0T
0U
0V
0W
0X
0Y
0Z
0[
0\
0]
0^
0_
0`
0a
0b
0c
0d
0e
0f
$end

#11000
b11110 !
b11110110 "
b10100 $
1%
b111111100 &
0'
0(
0*
0,
1/
10
02
13
04
16
17
18
19
1;
0<
1>
1?
0@
1A
0B
1C
1E
1G
1H
1I
1J
1K
1N
0O
1P
1Q
1S
1T
1U
0W
1X
1Y
0Z
1[
1\
1]
0_
1`
1a
0b
1c
1d
1e

#21000
b101 !
b1010 "
1#
b10000 $
0%
b11111 &
1'
0(
1)
1+
1,
1-
0/
10
11
13
14
15
06
17
08
19
0:
1;
1<
1=
0>
0?
1@
1A
0B
1C
1E
0G
0H
1I
1J
0K
0N
0O
0P
0Q
0S
0T
0U
0W
0X
0Y
0[
0\
0]
0_
0`
0a
0c
0d
0e

#31000
b1111111 !
b1 "
0#
b10000000 $
b11111110 &
1'
1(
0)
0+
0,
0-
1.
1/
00
17
08
1?
0@
1G
0H
0J
1K
1L
1M
1O
0P
1Q
1S
1T
1U
1W
0X
1Y
0Z
1[
1\
1]
0_
0`
1a
1b

#40000
b10100010 !
b11111111 "
1#
b10100010 $
1%
b111111111 &
0'
1(
1)
1+
1,
1-
0.
1/
10
12
04
05
16
07
18
0?
1@
0G
1H
1O
1P
1R
0T
0U
1V
0W
1X
1_
1`
1c
1f

#50000
b11100101 !
b11000011 "
b10101001 $
b110001111 &
1'
1(
1*
0,
0-
1.
0/
10
02
14
15
06
17
08
0?
0@
1B
0C
0D
0E
0G
0H
0I
0K
0L
0M
1O
0P
0Q
0S
1T
0U
0V
1W
1X
0Y
0Z
0\
0]
1^
1_
1`

#60000
b10100011 !
b101000 "
b11001100 $
0%
b1000111 &
1'
0(
0*
1,
1-
0.
1/
00
07
08
1:
0;
0<
0=
0?
1@
0A
1B
0C
1D
0E
0G
0H
0I
0J
1O
1P
0R
1S
0T
1V
0W
0X
1Y
1Z
0[
0^
1_
0`
0a
0c
1d
0e
0f

#70000
b10001100 !
b11001100 "
0#
b1011000 $
1%
b100011000 &
0'
0(
0)
0+
0,
0-
0/
00
01
03
04
05
17
18
09
0:
1;
1>
1?
1@
1A
1C
0D
1F
0G
0H
1I
1J
0O
0P
0S
0V
0W
1X
0Y
0[
1\
0]
1_
1`
0a
0b
1c
0d
1f

#80000
b1111010 !
b111011 "
b10110101 $
0%
b11110100 &
0'
1(
1*
1,
1/
10
13
16
07
08
19
1:
0;
0>
1?
1@
0A
0B
1G
1H
1K
1N
1O
1P
1Q
1R
1S
1V
1W
0X
1Y
0Z
1[
1]
0_
0`
1a
1b
0c
0f

#90000
b10111 !
b10001011 "
1#
b10100011 $
0%
b111111 &
1'
1(
1)
1+
0,
1.
1/
10
11
12
17
08
0:
1;
1<
1=
0?
1@
1A
1C
1D
1E
0F
1G
0H
1I
0J
1K
1L
1M
0N
0O
0P
1Q
1R
0S
0V
0W
0X
0Y
0[
0\
0]
0_
1`
0a
1b
0c
1d
0e

#100000
b1010101 !
b11011110 "
b110100 $
1%
b110111111 &
1'
0(
0*
1,
1-
0.
0/
10
02
14
15
06
17
18
1:
0<
0=
1>
0?
1@
1G
1H
1J
0L
0M
1N
0O
0P
1W
1X
1[
1^
0_
1`
1a
0b
1c
1e

#110000
b1100101 !
b10111001 "
b11111 $
1%
b111000011 &
1'
1(
1*
0,
0-
1.
0/
00
12
03
04
05
17
08
09
0;
1<
0=
0>
0?
1@
0A
1B
0C
0E
0G
1H
0I
1J
0K
1L
0M
0N
1O
1P
0Q
0R
1S
1V
1W
0X
1Y
1[
1\
1]
0^
0_
1`
1a
0b
1c
1e

#120000
b1000110 !
b11101001 "
0#
b101111 $
b110000000 &
0'
1(
0)
0+
1,
0.
1/
00
01
03
14
05
17
08
09
1:
0;
0=
0?
1@
0A
1B
0C
0E
0G
0H
0I
0J
0L
0O
1P
1R
0S
1T
0V
1W
1X
0Y
0Z
0\
0]
1^
0_
1`

#130000
b110000 !
b111011 "
1#
b1101100 $
0%
b1100111 &
0'
1(
1)
0*
1+
1-
0/
10
11
02
13
15
07
08
19
1:
0<
0?
1@
1G
1H
1K
1N
1O
1P
1Q
1S
0T
1V
0W
0X
1Y
1Z
0[
0^
0_
0`
0a
0c
0d
0e
