projects/counter/counter.sim/sim_1/behav/xsim/dump.vcd
$date
   Sat May 18 15:11:27 2024
$end

$version
  2023.2
  $dumpfile ("dump.vcd") 
$end

$timescale
  1ps
$end

$scope module counter_tb $end
$scope module dut $end
$var wire 1 ! clk $end
$var wire 1 " rst $end
$var wire 1 # incr $end
$var reg 8 $ count_reg [7:0] $end
$upscope $end
$upscope $end
$enddefinitions $end

#0
$dumpvars
0!
x"
x#
bx $
$end

#5000
1!

#10000
0!

#15000
1!

#20000
0!

#25000
1!

#26000
1"

#30000
0!

#35000
1!
b0 $

#40000
0!

#45000
1!

#46000
1#

#50000
0!

#55000
1!

#56000
0"

#60000
0!

#65000
1!
b1 $

#70000
0!

#75000
1!
b10 $

#80000
0!

#85000
1!
b11 $

#90000
0!

#95000
1!
b100 $

#96000
0#

