projects/State_Machine/State_Machine.sim/sim_1/behav/xsim/dump.vcd
$date
   Sat May 18 19:27:00 2024
$end

$version
  2023.2
  $dumpfile ("dump.vcd") 
$end

$timescale
  1ps
$end

$scope module p2s_tb $end
$var reg 1 ! clk $end
$var reg 1 " rstn $end
$var reg 8 # par_data [7:0] $end
$var reg 1 $ par_valid $end
$var reg 1 % par_ready $end
$var reg 1 & ser_data $end
$var reg 1 ' ser_valid $end
$var reg 1 ( ser_ready $end
$scope module dut $end
$var wire 1 ) clk $end
$var wire 1 * ser_ready $end
$var wire 1 + par_valid $end
$var wire 8 , par_data [7:0] $end
$var reg 1 % par_ready $end
$var reg 1 & ser_data $end
$var reg 1 ' ser_valid $end
$var reg 1 - state $end
$var reg 1 . next_state $end
$var reg 3 / count [2:0] $end
$var reg 8 0 shift_reg [7:0] $end
$upscope $end
$upscope $end
$enddefinitions $end

#0
$dumpvars
0!
0"
bx #
0$
1%
x&
0'
x(
0)
x*
0+
bx ,
0-
0.
bx /
bx 0
$end

#5000
1!
1)
b0 /

#6000
b111 #
1(
1*
b111 ,

#10000
0!
0)

#15000
1!
1&
1)
b111 0

#20000
0!
0)

#25000
1!
1)

#30000
0!
0)

#35000
1!
1)

#40000
0!
0)

#45000
1!
1)

#46000
b111110 #
1$
1+
b111110 ,
1.

#50000
0!
0)

#55000
1!
0%
0&
1'
1)
1-
b111110 0

#56000
0$
0+

#60000
0!
0)

#65000
1!
1&
1)
b1 /
b11111 0

#70000
0!
0)

#75000
1!
1)
b10 /
b1111 0

#80000
0!
0)

#85000
1!
1)
b11 /
b111 0

#90000
0!
0)

#95000
1!
1)
b100 /
b11 0

#100000
0!
0)

#105000
1!
1)
b101 /
b1 0

#110000
0!
0)

#115000
1!
0&
1)
b110 /
b0 0

#120000
0!
0)

#125000
1!
1)
0.
b111 /

#130000
0!
0)

#135000
1!
1%
0'
1)
0-
b0 /

#140000
0!
0)

#145000
1!
1)
b111110 0

#150000
0!
0)

#155000
1!
1)

#160000
0!
0)

#165000
1!
1)

#166000
b110100 #
1$
1+
b110100 ,
1.

#170000
0!
0)

#175000
1!
0%
1'
1)
1-
b110100 0

#176000
0$
0+

#180000
0!
0)

#185000
1!
1)
b1 /
b11010 0

#186000
0(
0*

#190000
0!
0)

#195000
1!
1)

#200000
0!
0)

#205000
1!
1)

#210000
0!
0)

#215000
1!
1)

#220000
0!
0)

#225000
1!
1)

#226000
1(
1*

#230000
0!
0)

#235000
1!
1&
1)
b10 /
b1101 0

#240000
0!
0)

#245000
1!
0&
1)
b11 /
b110 0

#250000
0!
0)

#255000
1!
1&
1)
b100 /
b11 0

#260000
0!
0)

#265000
1!
1)
b101 /
b1 0

#270000
0!
0)

#275000
1!
0&
1)
b110 /
b0 0

#280000
0!
0)

#285000
1!
1)
0.
b111 /

#290000
0!
0)

#295000
1!
1%
0'
1)
0-
b0 /

#300000
0!
0)

#305000
1!
1)
b110100 0

