projects/sv1/sv1.sim/sim_1/behav/xsim/dump.vcd
$date
   Sat May 18 12:48:03 2024
$end

$version
  2023.2
  $dumpfile ("dump.vcd") 
$end

$timescale
  1ps
$end

$scope module n_adder_tb $end
$scope module dut $end
$var wire 8 ! A [7:0] $end
$var wire 8 " B [7:0] $end
$var wire 1 # ci $end
$var reg 8 $ S [7:0] $end
$var reg 1 % co $end
$scope module add[0].fa $end
$var wire 1 & a $end
$var wire 1 ' b $end
$var wire 1 ( ci $end
$var reg 1 ) sum $end
$var reg 1 * co $end
$var reg 1 + wire_1 $end
$var reg 1 , wire_2 $end
$var wire 1 - wire_3 $end
$upscope $end
$scope module add[1].fa $end
$var wire 1 . a $end
$var wire 1 / b $end
$var wire 1 0 ci $end
$var reg 1 1 sum $end
$var reg 1 2 co $end
$var reg 1 3 wire_1 $end
$var reg 1 4 wire_2 $end
$var wire 1 5 wire_3 $end
$upscope $end
$scope module add[2].fa $end
$var wire 1 6 a $end
$var wire 1 7 b $end
$var wire 1 8 ci $end
$var reg 1 9 sum $end
$var reg 1 : co $end
$var reg 1 ; wire_1 $end
$var reg 1 < wire_2 $end
$var wire 1 = wire_3 $end
$upscope $end
$scope module add[3].fa $end
$var wire 1 > a $end
$var wire 1 ? b $end
$var wire 1 @ ci $end
$var reg 1 A sum $end
$var reg 1 B co $end
$var reg 1 C wire_1 $end
$var reg 1 D wire_2 $end
$var wire 1 E wire_3 $end
$upscope $end
$scope module add[4].fa $end
$var wire 1 F a $end
$var wire 1 G b $end
$var wire 1 H ci $end
$var reg 1 I sum $end
$var reg 1 J co $end
$var reg 1 K wire_1 $end
$var reg 1 L wire_2 $end
$var wire 1 M wire_3 $end
$upscope $end
$scope module add[5].fa $end
$var wire 1 N a $end
$var wire 1 O b $end
$var wire 1 P ci $end
$var reg 1 Q sum $end
$var reg 1 R co $end
$var reg 1 S wire_1 $end
$var reg 1 T wire_2 $end
$var wire 1 U wire_3 $end
$upscope $end
$scope module add[6].fa $end
$var wire 1 V a $end
$var wire 1 W b $end
$var wire 1 X ci $end
$var reg 1 Y sum $end
$var reg 1 Z co $end
$var reg 1 [ wire_1 $end
$var reg 1 \ wire_2 $end
$var wire 1 ] wire_3 $end
$upscope $end
$scope module add[7].fa $end
$var wire 1 ^ a $end
$var wire 1 _ b $end
$var wire 1 ` ci $end
$var reg 1 a sum $end
$var reg 1 b co $end
$var reg 1 c wire_1 $end
$var reg 1 d wire_2 $end
$var wire 1 e wire_3 $end
$upscope $end
$upscope $end
$upscope $end
$enddefinitions $end

#0
$dumpvars
b101 !
b1010 "
0#
b1111 $
0%
1&
0'
0(
1)
0*
1+
0,
0-
0.
1/
00
11
02
13
04
05
16
07
08
19
0:
1;
0<
0=
0>
1?
0@
1A
0B
1C
0D
0E
0F
0G
0H
0I
0J
0K
0L
0M
0N
0O
0P
0Q
0R
0S
0T
0U
0V
0W
0X
0Y
0Z
0[
0\
0]
0^
0_
0`
0a
0b
0c
0d
0e
$end

#11000
b11110 !
b11110110 "
b10100 $
1%
0&
0'
0)
0+
1.
1/
01
12
03
15
16
17
18
1:
0;
1=
1>
0?
1@
0A
1B
1D
1F
1G
1H
1I
1J
1M
0N
1O
1P
1R
1S
1T
0V
1W
1X
0Y
1Z
1[
1\
0^
1_
1`
0a
1b
1c
1d

#21000
b101 !
b1010 "
1#
b10000 $
0%
1&
0'
1(
1*
1+
1,
0.
1/
10
12
13
14
05
16
07
18
09
1:
1;
1<
0=
0>
1?
1@
0A
1B
1D
0F
0G
1H
1I
0J
0M
0N
0O
0P
0R
0S
0T
0V
0W
0X
0Z
0[
0\
0^
0_
0`
0b
0c
0d

#31000
b1111111 !
b1 "
0#
b10000000 $
1&
1'
0(
0*
0+
0,
1-
1.
0/
16
07
1>
0?
1F
0G
0I
1J
1K
1L
1N
0O
1P
1R
1S
1T
1V
0W
1X
0Y
1Z
1[
1\
0^
0_
1`
1a

#40000
b10100010 !
b11111111 "
1#
b10100010 $
1%
0&
1'
1(
1*
1+
1,
0-
1.
1/
11
03
04
15
06
17
0>
1?
0F
1G
1N
1O
1Q
0S
0T
1U
0V
1W
1^
1_
1b
1e

#50000
b11100101 !
b11000011 "
b10101001 $
1&
1'
1)
0+
0,
1-
0.
1/
01
13
14
05
16
07
0>
0?
1A
0B
0C
0D
0F
0G
0H
0J
0K
0L
1N
0O
0P
0R
1S
0T
0U
1V
1W
0X
0Y
0[
0\
1]
1^
1_

#60000
b10100011 !
b101000 "
b11001100 $
0%
1&
0'
0)
1+
1,
0-
1.
0/
06
07
19
0:
0;
0<
0>
1?
0@
1A
0B
1C
0D
0F
0G
0H
0I
1N
1O
0Q
1R
0S
1U
0V
0W
1X
1Y
0Z
0]
1^
0_
0`
0b
1c
0d
0e

#70000
b10001100 !
b11001100 "
0#
b1011000 $
1%
0&
0'
0(
0*
0+
0,
0.
0/
00
02
03
04
16
17
08
09
1:
1=
1>
1?
1@
1B
0C
1E
0F
0G
1H
1I
0N
0O
0R
0U
0V
1W
0X
0Z
1[
0\
1^
1_
0`
0a
1b
0c
1e

#80000
b1111010 !
b111011 "
b10110101 $
0%
0&
1'
1)
1+
1.
1/
12
15
06
07
18
19
0:
0=
1>
1?
0@
0A
1F
1G
1J
1M
1N
1O
1P
1Q
1R
1U
1V
0W
1X
0Y
1Z
1\
0^
0_
1`
1a
0b
0e

#90000
b10111 !
b10001011 "
1#
b10100011 $
0%
1&
1'
1(
1*
0+
1-
1.
1/
10
11
16
07
09
1:
1;
1<
0>
1?
1@
1B
1C
1D
0E
1F
0G
1H
0I
1J
1K
1L
0M
0N
0O
1P
1Q
0R
0U
0V
0W
0X
0Z
0[
0\
0^
1_
0`
1a
0b
1c
0d

#100000
b1010101 !
b11011110 "
b110100 $
1%
1&
0'
0)
1+
1,
0-
0.
1/
01
13
14
05
16
17
19
0;
0<
1=
0>
1?
1F
1G
1I
0K
0L
1M
0N
0O
1V
1W
1Z
1]
0^
1_
1`
0a
1b
1d

#110000
b1100101 !
b10111001 "
b11111 $
1%
1&
1'
1)
0+
0,
1-
0.
0/
11
02
03
04
16
07
08
0:
1;
0<
0=
0>
1?
0@
1A
0B
0D
0F
1G
0H
1I
0J
1K
0L
0M
1N
1O
0P
0Q
1R
1U
1V
0W
1X
1Z
1[
1\
0]
0^
1_
1`
0a
1b
1d

#120000
b1000110 !
b11101001 "
0#
b101111 $
0&
1'
0(
0*
1+
0-
1.
0/
00
02
13
04
16
07
08
19
0:
0<
0>
1?
0@
1A
0B
0D
0F
0G
0H
0I
0K
0N
1O
1Q
0R
1S
0U
1V
1W
0X
0Y
0[
0\
1]
0^
1_

#130000
b110000 !
b111011 "
1#
b1101100 $
0%
0&
1'
1(
0)
1*
1,
0.
1/
10
01
12
14
06
07
18
19
0;
0>
1?
1F
1G
1J
1M
1N
1O
1P
1R
0S
1U
0V
0W
1X
1Y
0Z
0]
0^
0_
0`
0b
0c
0d
